Primer ID	Target
ENSSSCG00000005719_0	 1
ENSSSCG00000005719_1	 1
ENSSSCG00000005719_2	 1
ENSSSCG00000005719_3	 1
ENSSSCG00000005719_4	 1
ENSSSCG00000014811_0	 1
ENSSSCG00000014811_1	 1
ENSSSCG00000014811_2	 1
ENSSSCG00000014811_3	 1
ENSSSCG00000014811_4	 1
ENSSSCG00000011241_0	 1
ENSSSCG00000011241_1	 1
ENSSSCG00000011241_2	 1
ENSSSCG00000011241_3	 1
ENSSSCG00000011241_4	 1
ENSSSCG00000014802_0	 1
ENSSSCG00000014802_1	 1
ENSSSCG00000014802_2	 1
ENSSSCG00000014802_3	 1
ENSSSCG00000014802_4	 1
ENSSSCG00000001025_0	 1
ENSSSCG00000001025_1	 1
ENSSSCG00000001025_2	 1
ENSSSCG00000001025_3	 1
ENSSSCG00000001025_4	 1
ENSSSCG00000026412_0	 1
ENSSSCG00000026412_1	 1
ENSSSCG00000026412_2	 1
ENSSSCG00000026412_3	 1
ENSSSCG00000026412_4	 1
ENSSSCG00000010756_0	 1
ENSSSCG00000010756_1	 1
ENSSSCG00000010756_2	 1
ENSSSCG00000010756_3	 1
ENSSSCG00000010756_4	 1
ENSSSCG00000007602_0	 1
ENSSSCG00000007602_1	 1
ENSSSCG00000007602_2	 1
ENSSSCG00000007602_3	 1
ENSSSCG00000007602_4	 1
ENSSSCG00000026161_0	 1
ENSSSCG00000026161_1	 1
ENSSSCG00000026161_2	 1
ENSSSCG00000026161_3	 1
ENSSSCG00000026161_4	 1
ENSSSCG00000013658_0	 1
ENSSSCG00000013658_1	 1
ENSSSCG00000013658_2	 1
ENSSSCG00000013658_3	 1
ENSSSCG00000013658_4	 1
ENSSSCG00000023677_0	 1
ENSSSCG00000023677_1	 1
ENSSSCG00000023677_2	 1
ENSSSCG00000023677_3	 1
ENSSSCG00000023677_4	 1
ENSSSCG00000010140_0	 1
ENSSSCG00000010140_1	 1
ENSSSCG00000010140_2	 1
ENSSSCG00000010140_3	 1
ENSSSCG00000010140_4	 1
ENSSSCG00000016912_0	 1
ENSSSCG00000016912_1	 1
ENSSSCG00000016912_2	 1
ENSSSCG00000016912_3	 1
ENSSSCG00000016912_4	 1
ENSSSCG00000004012_0	 1
ENSSSCG00000004012_1	 1
ENSSSCG00000004012_2	 1
ENSSSCG00000004012_3	 1
ENSSSCG00000004012_4	 1
ENSSSCG00000012939_0	 1
ENSSSCG00000012939_1	 1
ENSSSCG00000012939_2	 1
ENSSSCG00000012939_3	 1
ENSSSCG00000012939_4	 1
ENSSSCG00000008040_0	 1
ENSSSCG00000008040_1	 1
ENSSSCG00000008040_2	 1
ENSSSCG00000008040_3	 1
ENSSSCG00000008040_4	 1
